%YAML 1.1
%TAG !u! tag:unity3d.com,2011:
--- !u!114 &11400000
MonoBehaviour:
  m_ObjectHideFlags: 0
  m_CorrespondingSourceObject: {fileID: 0}
  m_PrefabInstance: {fileID: 0}
  m_PrefabAsset: {fileID: 0}
  m_GameObject: {fileID: 0}
  m_Enabled: 1
  m_EditorHideFlags: 0
  m_Script: {fileID: 11500000, guid: 278760a7aaab54d7496e47ea5067b8fb, type: 3}
  m_Name: Shop Assortment
  m_EditorClassIdentifier: 
  Shop: {fileID: 0}
  Money: 0
  Diamonds: 0
  Videos: 0
  Money_k: 0
  Diamonds_k: 0
  PlanetLevel: 0
  ZomboLevel: 0
  CurSelectedZomboIndex: 0
  CashUpgrades:
  - Name: Money
    ID: 0
    PriceType: 0
    Price: 0
    Value: 1
  - Name: Money
    ID: 1
    PriceType: 0
    Price: 1000
    Value: 2
  - Name: Money
    ID: 2
    PriceType: 1
    Price: 100
    Value: 3
  - Name: Diamonds
    ID: 0
    PriceType: 0
    Price: 0
    Value: 1
  - Name: Diamonds
    ID: 1
    PriceType: 1
    Price: 100
    Value: 2
  - Name: Diamonds
    ID: 2
    PriceType: 1
    Price: 300
    Value: 3
  AllZombos:
  - Sprite: {fileID: 21300034, guid: b84339c7ca2fa4fda84579a04f8cd5ee, type: 3}
    PriceType: 0
    ID: 0
    Price: 0
    StartDamage: 1
    Damage: 0
    StartHealth: 3
    Health: 0
    StartSpeed: 10
    Speed: 0
    StartArmor: 0
    Armor: 0
    TapMultiplier: 1
    Parameters:
    - Name: Damage
      ID: 0
      PriceType: 0
      Price: 0
      Value: 0
    - Name: Damage
      ID: 1
      PriceType: 0
      Price: 1000
      Value: 0.5
    - Name: Damage
      ID: 2
      PriceType: 1
      Price: 10
      Value: 0.8
    - Name: Armor
      ID: 0
      PriceType: 0
      Price: 0
      Value: 0
    - Name: Armor
      ID: 1
      PriceType: 0
      Price: 1000
      Value: 0.3
    - Name: Armor
      ID: 2
      PriceType: 1
      Price: 10
      Value: 0.5
    - Name: Speed
      ID: 0
      PriceType: 0
      Price: 0
      Value: 0
    - Name: Speed
      ID: 1
      PriceType: 0
      Price: 1000
      Value: 2
    - Name: Speed
      ID: 2
      PriceType: 1
      Price: 10
      Value: 5
    - Name: TapMultiplier
      ID: 0
      PriceType: 0
      Price: 0
      Value: 0
    - Name: TapMultiplier
      ID: 1
      PriceType: 1
      Price: 125
      Value: 1
  - Sprite: {fileID: 21300058, guid: b84339c7ca2fa4fda84579a04f8cd5ee, type: 3}
    PriceType: 0
    ID: 1
    Price: 35000
    StartDamage: 2
    Damage: 0
    StartHealth: 5
    Health: 0
    StartSpeed: 6
    Speed: 0
    StartArmor: 0
    Armor: 0.1
    TapMultiplier: 1
    Parameters:
    - Name: Damage
      ID: 0
      PriceType: 0
      Price: 0
      Value: 1
    - Name: Damage
      ID: 1
      PriceType: 0
      Price: 2500
      Value: 0.5
    - Name: Damage
      ID: 2
      PriceType: 1
      Price: 21
      Value: 0.8
    - Name: Armor
      ID: 0
      PriceType: 0
      Price: 0
      Value: 0
    - Name: Armor
      ID: 1
      PriceType: 0
      Price: 2500
      Value: 0.3
    - Name: Armor
      ID: 2
      PriceType: 1
      Price: 21
      Value: 0.5
    - Name: Speed
      ID: 0
      PriceType: 0
      Price: 0
      Value: 0
    - Name: Speed
      ID: 1
      PriceType: 0
      Price: 2500
      Value: 2
    - Name: Speed
      ID: 2
      PriceType: 1
      Price: 21
      Value: 5
    - Name: TapMultiplier
      ID: 0
      PriceType: 0
      Price: 0
      Value: 0
    - Name: TapMultiplier
      ID: 1
      PriceType: 1
      Price: 350
      Value: 1
  - Sprite: {fileID: 21300058, guid: b84339c7ca2fa4fda84579a04f8cd5ee, type: 3}
    PriceType: 1
    ID: 1
    Price: 47
    StartDamage: 2
    Damage: 0
    StartHealth: 5
    Health: 0
    StartSpeed: 6
    Speed: 0
    StartArmor: 0
    Armor: 0.1
    TapMultiplier: 1
    Parameters:
    - Name: Damage
      ID: 0
      PriceType: 0
      Price: 0
      Value: 1
    - Name: Damage
      ID: 1
      PriceType: 0
      Price: 2500
      Value: 0.5
    - Name: Damage
      ID: 2
      PriceType: 1
      Price: 21
      Value: 0.8
    - Name: Armor
      ID: 0
      PriceType: 0
      Price: 0
      Value: 0
    - Name: Armor
      ID: 1
      PriceType: 0
      Price: 2500
      Value: 0.3
    - Name: Armor
      ID: 2
      PriceType: 1
      Price: 21
      Value: 0.5
    - Name: Speed
      ID: 0
      PriceType: 0
      Price: 0
      Value: 0
    - Name: Speed
      ID: 1
      PriceType: 0
      Price: 2500
      Value: 2
    - Name: Speed
      ID: 2
      PriceType: 1
      Price: 21
      Value: 5
    - Name: TapMultiplier
      ID: 0
      PriceType: 0
      Price: 0
      Value: 0
    - Name: TapMultiplier
      ID: 1
      PriceType: 1
      Price: 350
      Value: 1
