%YAML 1.1
%TAG !u! tag:unity3d.com,2011:
--- !u!114 &11400000
MonoBehaviour:
  m_ObjectHideFlags: 0
  m_CorrespondingSourceObject: {fileID: 0}
  m_PrefabInternal: {fileID: 0}
  m_GameObject: {fileID: 0}
  m_Enabled: 1
  m_EditorHideFlags: 0
  m_Script: {fileID: 11500000, guid: 0c9fa30e000f3420796cfbd1e09a86d6, type: 3}
  m_Name: purple_apparition.fla._Stage_
  m_EditorClassIdentifier: 
  Name: _Stage_
  Sprite: {fileID: 21300000, guid: a799322aa44e44b38980bc9d307f0c38, type: 3}
  FrameRate: 24
  AssetGUID: 0f54ba869440c48cd8d6c64e70c09b87
  Sequences:
  - Name: Default
    Frames:
    - Labels: []
      MeshData:
        SubMeshes:
        - StartVertex: 0
          IndexCount: 18
        Vertices:
        - {x: 1.4074999, y: -1.2465}
        - {x: 1.4567962, y: -1.2465}
        - {x: 1.4567962, y: -1.265126}
        - {x: 1.4074999, y: -1.265126}
        - {x: 1.3955, y: -1.242}
        - {x: 1.4708942, y: -1.242}
        - {x: 1.4708942, y: -1.2696567}
        - {x: 1.3955, y: -1.2696567}
        - {x: 1.3870001, y: -1.2475}
        - {x: 1.4810733, y: -1.2475}
        - {x: 1.4810733, y: -1.2815095}
        - {x: 1.3870001, y: -1.2815095}
        UVs:
        - 2755609791
        - 2898218239
        - 4068413439
        - 4286520383
        - 4001307775
        - 4177471039
        AddColors:
        - 0
        - 0
        - 0
        - 0
        - 0
        - 0
        MulColors:
        - 33554944
        - 33554688
        - 33554944
        - 33554688
        - 33554944
        - 33554688
      Materials:
      - {fileID: 2100000, guid: d58d9a5e482e8429f8d7d18a9538d94a, type: 2}
