%YAML 1.1
%TAG !u! tag:unity3d.com,2011:
--- !u!114 &11400000
MonoBehaviour:
  m_ObjectHideFlags: 0
  m_CorrespondingSourceObject: {fileID: 0}
  m_PrefabInstance: {fileID: 0}
  m_PrefabAsset: {fileID: 0}
  m_GameObject: {fileID: 0}
  m_Enabled: 1
  m_EditorHideFlags: 0
  m_Script: {fileID: 11500000, guid: 0c9fa30e000f3420796cfbd1e09a86d6, type: 3}
  m_Name: lose_window.privatePkg.___LayerProp___
  m_EditorClassIdentifier: 
  Name: privatePkg.___LayerProp___
  Sprite: {fileID: 21300000, guid: 1b56df912183948e6bcc5e485657678c, type: 3}
  FrameRate: 30
  AssetGUID: daeeb493911a3407191a6f97e552630d
  Sequences:
  - Name: Default
    Frames:
    - Labels: []
      MeshData:
        SubMeshes: []
        Vertices: []
        UVs: 
        AddColors: 
        MulColors: 
      Materials: []
